{
  "sale": [
    {
      "value": "1",
      "label": "Работа с контактом",
      "stage": 20
    },
    {
      "value": "2",
      "label": "Приняли в работу",
      "stage": 40
    },
    {
      "value": "3",
      "label": "Показы",
      "stage": 60
    },
    {
      "value": "4",
      "label": "Задаток",
      "stage": 80
    },
    {
      "value": "5",
      "label": "Успешно",
      "stage": 100
    },
    {
      "value": "6",
      "label": "Неуспешно",
      "stage": 100
    }
  ],
  "rent": [
  {
    "value": "1",
    "label": "Работа с контактом",
    "stage": 33
  },
  {
    "value": "2",
    "label": "Приняли в работу",
    "stage": 66
  },
  {
    "value": "3",
    "label": "Успешно",
    "stage": 100
  },
  {
    "value": "4",
    "label": "Неуспешно",
    "stage": 100
  }
]
}